%YAML 1.1
%TAG !u! tag:unity3d.com,2011:
--- !u!74 &7400000
AnimationClip:
  m_ObjectHideFlags: 0
  m_CorrespondingSourceObject: {fileID: 0}
  m_PrefabInstance: {fileID: 0}
  m_PrefabAsset: {fileID: 0}
  m_Name: Idle
  serializedVersion: 6
  m_Legacy: 0
  m_Compressed: 0
  m_UseHighQualityCurve: 1
  m_RotationCurves: []
  m_CompressedRotationCurves: []
  m_EulerCurves: []
  m_PositionCurves: []
  m_ScaleCurves: []
  m_FloatCurves: []
  m_PPtrCurves:
  - curve:
    - time: 0
      value: {fileID: 21300000, guid: f00b4747e194d43ebba76abc9ea17f57, type: 3}
    - time: 0.1
      value: {fileID: 21300000, guid: 59220b107872b420f9200542ab7d4763, type: 3}
    - time: 0.2
      value: {fileID: 21300000, guid: 0b692f1e744ec43dd84f1b1df511112b, type: 3}
    - time: 0.3
      value: {fileID: 21300000, guid: efab8307cd05f446d995e89aa5a339af, type: 3}
    - time: 0.4
      value: {fileID: 21300000, guid: cdb9e5532b5eb47daaf302a4902a0498, type: 3}
    - time: 0.5
      value: {fileID: 21300000, guid: 89ac76dbee8aa4e1bb30692ddce4a364, type: 3}
    - time: 0.6
      value: {fileID: 21300000, guid: ffa450555b05e40259e14f45b3d7c427, type: 3}
    - time: 0.7
      value: {fileID: 21300000, guid: aba71567efd404adf98458d20512bbcb, type: 3}
    attribute: m_Sprite
    path: 
    classID: 212
    script: {fileID: 0}
  m_SampleRate: 10
  m_WrapMode: 0
  m_Bounds:
    m_Center: {x: 0, y: 0, z: 0}
    m_Extent: {x: 0, y: 0, z: 0}
  m_ClipBindingConstant:
    genericBindings:
    - serializedVersion: 2
      path: 0
      attribute: 0
      script: {fileID: 0}
      typeID: 212
      customType: 23
      isPPtrCurve: 1
    pptrCurveMapping:
    - {fileID: 21300000, guid: f00b4747e194d43ebba76abc9ea17f57, type: 3}
    - {fileID: 21300000, guid: 59220b107872b420f9200542ab7d4763, type: 3}
    - {fileID: 21300000, guid: 0b692f1e744ec43dd84f1b1df511112b, type: 3}
    - {fileID: 21300000, guid: efab8307cd05f446d995e89aa5a339af, type: 3}
    - {fileID: 21300000, guid: cdb9e5532b5eb47daaf302a4902a0498, type: 3}
    - {fileID: 21300000, guid: 89ac76dbee8aa4e1bb30692ddce4a364, type: 3}
    - {fileID: 21300000, guid: ffa450555b05e40259e14f45b3d7c427, type: 3}
    - {fileID: 21300000, guid: aba71567efd404adf98458d20512bbcb, type: 3}
  m_AnimationClipSettings:
    serializedVersion: 2
    m_AdditiveReferencePoseClip: {fileID: 0}
    m_AdditiveReferencePoseTime: 0
    m_StartTime: 0
    m_StopTime: 0.8
    m_OrientationOffsetY: 0
    m_Level: 0
    m_CycleOffset: 0
    m_HasAdditiveReferencePose: 0
    m_LoopTime: 1
    m_LoopBlend: 0
    m_LoopBlendOrientation: 0
    m_LoopBlendPositionY: 0
    m_LoopBlendPositionXZ: 0
    m_KeepOriginalOrientation: 0
    m_KeepOriginalPositionY: 1
    m_KeepOriginalPositionXZ: 0
    m_HeightFromFeet: 0
    m_Mirror: 0
  m_EditorCurves: []
  m_EulerEditorCurves: []
  m_HasGenericRootTransform: 0
  m_HasMotionFloatCurves: 0
  m_Events: []
